{
    "app-id": "io.gitlab.floodlight.Presenter",
    "runtime": "org.gnome.Platform",
    "runtime-version": "41",
    "sdk": "org.gnome.Sdk",
    "command": "floodlight-presenter",
    "finish-args" : [
        "--share=ipc",
        "--socket=x11",
        "--socket=pulseaudio",
        "--device=dri",
        "--share=network",
        "--filesystem=host:ro"
    ],
    "cleanup": [
        "/include",
        "/lib/pkgconfig",
        "/lib/debug",
        "/share/gtk-doc",
        "*.la",
        "*.a"
    ],
    "modules": [
        {
            "name": "presenter",
            "buildsystem": "meson",
            "sources": [
                {
                    "type": "git",
                    "url": "https://gitlab.com/floodlight/presenter.git",
                    "branch": "master"
                }
            ]
        }
    ]
}
