{
  "segments": [
    {
      "type": "slideshow",
      "name": "Welcome to Floodlight!",
      "looping": true,
      "slideshow": {
        "arrangement": {
          "contents": [
            {
              "slide": {
                "layout": "lyrics",
                "enabled": true,
                "fields": {
                  "content": "Thanks for choosing Floodlight!\nWe recommend reading the\nGetting Started guide."
                }
              }
            },
            {
              "slide": {
                "layout": "lyrics",
                "enabled": true,
                "fields": {
                  "content": "You can find it by clicking\nthe menu button in the top\nleft, then choosing \"Help\"."
                }
              }
            }
          ]
        },
        "groups": {}
      }
    }
  ]
}
